[
  {
    "num_code": 980,
    "char_code": "UAH",
    "value": 58.109
  },
  {
    "num_code": 826,
    "char_code": "GBP",
    "value": 43.8254
  },
  {
    "num_code": 960,
    "char_code": "XDR",
    "value": 38.4205
  },
  {
    "num_code": 208,
    "char_code": "DKK",
    "value": 36.101
  },
  {
    "num_code": 578,
    "char_code": "NOK",
    "value": 34.7853
  },
  {
    "num_code": 840,
    "char_code": "USD",
    "value": 30.9436
  },
  {
    "num_code": 352,
    "char_code": "ISK",
    "value": 30.7958
  },
  {
    "num_code": 752,
    "char_code": "SEK",
    "value": 29.5924
  },
  {
    "num_code": 978,
    "char_code": "EUR",
    "value": 26.8343
  },
  {
    "num_code": 392,
    "char_code": "JPY",
    "value": 23.1527
  },
  {
    "num_code": 792,
    "char_code": "TRL",
    "value": 22.2616
  },
  {
    "num_code": 398,
    "char_code": "KZT",
    "value": 20.3393
  },
  {
    "num_code": 124,
    "char_code": "CAD",
    "value": 19.324
  },
  {
    "num_code": 974,
    "char_code": "BYR",
    "value": 18.429
  },
  {
    "num_code": 756,
    "char_code": "CHF",
    "value": 18.1861
  },
  {
    "num_code": 702,
    "char_code": "SGD",
    "value": 16.8878
  },
  {
    "num_code": 36,
    "char_code": "AUD",
    "value": 16.0102
  }
]
